…
``` r
# Normality of Residuals 
model <- lm(POM.diff ~ POM.before + Tide, data = POMP)
# Inspect the model diagnostic metrics
model.metrics3 <- augment(model)
model.metrics3
```

    ## # A tibble: 24 x 9
    ##    POM.diff POM.before Tide  .fitted .resid   .hat .sigma   .cooksd .std.resid
    ##       <int>      <int> <fct>   <dbl>  <dbl>  <dbl>  <dbl>     <dbl>      <dbl>
    ##  1     1257       1499 Meso     944.  313.  0.100    344. 0.0344        0.962 
    ##  2     1238       1565 Meso     988.  250.  0.0876   346. 0.0187        0.765 
    ##  3      950       1577 Meso     995.  -45.5 0.0862   351. 0.000605     -0.139 
    ##  4     1001       1559 Meso     984.   17.4 0.0884   351. 0.0000909     0.0530
    ##  5      996       2070 Meso    1320. -324.  0.274    341. 0.155        -1.11  
    ##  6      810       1426 Meso     896.  -86.1 0.125    351. 0.00342      -0.269 
    ##  7     1783       1894 Meso    1204.  579.  0.152    322. 0.201         1.83  
    ##  8      602       1399 Meso     878. -276.  0.136    345. 0.0396       -0.867 
    ##  9      685       1402 Meso     880. -195.  0.135    348. 0.0195       -0.613 
    ## 10      549       1672 Meso    1058. -509.  0.0850   331. 0.0746       -1.55  
    ## # ... with 14 more rows
…
